{
  "plans": [
    {
      "sequence": 1,
      "label": "Unlimited",
      "sub_label": "Basic",
      "template": {
        "elements": [
          {
            "label": "Public Transport (bus-tram-metro)", "icon": "public_transport", "variable": "pt",
            "values": [
              { "status": true, "value": 1 }
            ]
          },
          {
            "label": "Bike-sharing", "icon": "bike", "variable": "bs",
            "values": [
              { "status": true, "value": 1 }
            ]
          }
        ],
        "prices": [
          85,
          85.90,
          86.0,
          86.9,
          87.50,
          88.50,
          89,
          90
        ],
        "actual_price": 87.5
      }
    },

    {
      "sequence": 2,
      "label": "Unlimited",
      "sub_label": "Drive & Driven",
      "template": {
        "elements": [
          {
            "label": "Car-sharing", "icon": "car_sharing", "variable": "cs",
            "values": [
              { "status": true, "value": 99 }
            ]
          },
          {
            "label": "Public Transport (bus-tram-metro)", "icon": "public_transport", "variable": "pt",
            "values": [
              { "status": true, "value": 1 },
              { "status": false, "value": 0 }
            ]
          },
          {
            "label": "Bike-sharing", "icon": "bike", "variable": "bs",
            "values": [
              { "status": true, "value": 1 },
              { "status": false, "value": 0 }
            ]
          },
          {
            "label": "2 days luxury car rental for FREE", "icon": "special", "variable": "sp_cr",
            "values": [
              { "status": true, "value": 1 },
              { "status": false, "value": 0 }
            ]
          }
        ],
        "prices": [
          250,
          255,
          260,
          265.9,
          270,
          275.9,
          280,
          285,
          285.9,
          290.00,
          295.00,
          300,
          305,
          310
        ],
        "actual_price": 743.61
      }
    },

    {
      "sequence": 3,
      "label": "Unlimited",
      "sub_label": "Drive me there",
      "template": {
        "elements": [
          {
            "label": "Taxi", "icon": "taxi", "variable": "tx",
            "values": [
              { "status": true, "value": 99 }
            ]
          },
          {
            "label": "Public Transport (bus-tram-metro)", "icon": "public_transport", "variable": "pt",
            "values": [
              { "status": true, "value": 1 },
              { "status": false, "value": 0 }
            ]
          },
          {
            "label": "Bike-sharing", "icon": "bike", "variable": "bs",
            "values": [
              { "status": true, "value": 1 },
              { "status": false, "value": 0 }
            ]
          },
          {
            "label": "2 days luxury car rental for FREE", "icon": "special", "variable": "sp_cr",
            "values": [
              { "status": true, "value": 1 },
              { "status": false, "value": 0 }
            ]
          }
        ],
        "prices": [
          420,
          449,
          475,
          490,
          500,
          549,
          569,
          582.90,
          584.90,
          589,
          599,
          600,
          610,
          613.00,
          615.90,
          619.90
        ],
        "actual_price": 582.5
      }
    },

    {
      "sequence": 4,
      "label": "Unlimited",
      "sub_label": "Everything",
      "template": {
        "elements": [
          {
            "label": "Public Transport (bus-tram-metro)", "icon": "public_transport", "variable": "pt",
            "values": [
              { "status": true, "value": 1 }
            ]
          },
          {
            "label": "Bike-sharing", "icon": "bike", "variable": "bs",
            "values": [
              { "status": true, "value": 1 }
            ]
          },
          {
            "label": "Taxi", "icon": "taxi", "variable": "tx",
            "values": [
              { "status": true, "value": 99 }
            ]
          },
          {
            "label": "Car-sharing", "icon": "car_sharing", "variable": "cs",
            "values": [
              { "status": true, "value": 99 }
            ]
          },
          {
            "label": "3 days luxury car rental for FREE", "icon": "special", "variable": "sp_cr",
            "values": [
              { "status": true, "value": 1 },
              { "status": false, "value": 0 }
            ]
          }
        ],
        "prices": [
          449,
          459,
          469,
          499,
          519,
          549,
          569,
          599,
          600,
          619,
          625,
          639,
          649,
          659,
          669,
          699,
          700,
          709,
          715,
          719,
          725,
          729,
          730,
          735,
          739,
          745,
          749,
          750
        ],
        "actual_price": 702.58
      }
    }
  ]
}
