<?xml version="1.0" encoding="UTF-8"?>
<svg width="42px" height="42px" viewBox="0 0 42 42" version="1.1" xmlns="http://www.w3.org/2000/svg" xmlns:xlink="http://www.w3.org/1999/xlink">
    <!-- Generator: Sketch 46 (44423) - http://www.bohemiancoding.com/sketch -->
    <title>Group 9</title>
    <desc>Created with Sketch.</desc>
    <defs>
        <circle id="path-1" cx="4.49448433" cy="17.2423724" r="1.6516547"></circle>
        <circle id="path-2" cx="15.5055157" cy="17.2423724" r="1.6516547"></circle>
    </defs>
    <g id="Symbols" stroke="none" stroke-width="1" fill="none" fill-rule="evenodd">
        <g id="Group-9">
            <g id="Group-6-Copy" fill="#0098FF">
                <circle id="Oval-3-Copy" cx="21" cy="21" r="21"></circle>
            </g>
            <g id="bus" transform="translate(11.000000, 8.000000)">
                <path d="M10.0296655,1.00593999 C8.27691198,0.985006192 2.75026094,1.0013153 2.75026094,1.0013153 C1.64386256,1.00386945 0.74224357,1.9033701 0.736463519,3.00874762 C0.736463519,3.00874762 0.640623369,21.2311208 0.640623369,22.3467404 C0.640623369,23.46236 0.835100907,24.174206 2.43394333,24.174206 C4.03278575,24.174206 3.76745341,22.5722837 3.76745341,22.1066806 C3.76745341,21.6410774 3.90266579,20.8161909 4.75661095,20.8161909 C5.61055611,20.8161909 10.0296655,20.8161909 10.0296655,20.8161909 L15.4699966,20.8161909 C15.4699966,20.8161909 16.3645932,20.7609476 16.3645932,22.1066806 C16.3645932,23.4524135 16.2931238,24.174206 17.8353351,24.174206 C19.3775464,24.174206 19.3593717,23.6935487 19.3593717,22.1066806 C19.3593717,20.5198124 19.3593717,2.99660357 19.3593717,2.99660357 C19.3593717,1.89719044 18.4737483,1.00814489 17.3647484,1.01052381 C17.3647484,1.01052381 11.782419,1.0268738 10.0296655,1.00593999 Z" id="Path-10" stroke="#FFFFFF" stroke-width="1.5"></path>
                <path d="M1.13611978,12.75 L18.8859032,12.75" id="Line" stroke="#FFFFFF" stroke-width="1.5" stroke-linecap="square"></path>
                <g id="Oval-14">
                    <use fill="#FFFFFF" fill-rule="evenodd" xlink:href="#path-1"></use>
                    <circle stroke="#FFFFFF" stroke-width="1.5" cx="4.49448433" cy="17.2423724" r="1"></circle>
                </g>
                <g id="Oval-14-Copy">
                    <use fill="#FFFFFF" fill-rule="evenodd" xlink:href="#path-2"></use>
                    <circle stroke="#FFFFFF" stroke-width="1.5" cx="15.5055157" cy="17.2423724" r="1"></circle>
                </g>
            </g>
        </g>
    </g>
</svg>