<?xml version="1.0" encoding="UTF-8"?>
<svg width="42px" height="43px" viewBox="0 0 42 43" version="1.1" xmlns="http://www.w3.org/2000/svg" xmlns:xlink="http://www.w3.org/1999/xlink">
    <!-- Generator: Sketch 46 (44423) - http://www.bohemiancoding.com/sketch -->
    <title>Group 7</title>
    <desc>Created with Sketch.</desc>
    <defs></defs>
    <g id="Symbols" stroke="none" stroke-width="1" fill="none" fill-rule="evenodd">
        <g id="Group-7">
            <g id="Group-6-Copy-2" transform="translate(0.000000, 1.000000)" fill="#0098FF">
                <circle id="Oval-3-Copy" cx="21" cy="21" r="21"></circle>
            </g>
            <g id="Group-6-Copy-3" fill="#0098FF">
                <circle id="Oval-3-Copy" cx="21" cy="21" r="21"></circle>
            </g>
            <g id="train" transform="translate(14.000000, 8.000000)" stroke="#FFFFFF" stroke-width="1.5">
                <path d="M0,12 L15,12" id="Stroke-1"></path>
                <polyline id="Stroke-3" points="8 2.22044605e-16 6 2.06499974 8 4"></polyline>
                <path d="M12.9668518,20 L2.03314821,20 C0.910195324,20 0,19.1471929 0,18.0950428 L0,5.90495725 C0,4.85280707 0.910195324,4 2.03314821,4 L12.9668518,4 C14.089568,4 15,4.85280707 15,5.90495725 L15,18.0950428 C15,19.1471929 14.089568,20 12.9668518,20 Z" id="Stroke-5"></path>
                <polyline id="Stroke-5" points="1 28 4.11202553 22 11.6752658 22 15 28"></polyline>
                <path d="M2.5,24.75 L13.5,24.75" id="Stroke-7"></path>
            </g>
        </g>
    </g>
</svg>